Bulk Tidy Transcriptomics - analysis of bulk RNA sequencing data with R tidy principles • zhejiang2020
…
  # Filter for empty symbols
  filter(!is.na(symbol)) %>%
  
  # Memorise key column names for streamlined analyses using `tidybulk`
  tidybulk(sample, symbol, count)

## Joining, by = "sample"

## 

## 'select()' returned 1:1 mapping between keys and columns

counts

## # A tibble: 233,136 x 6
##    entrez    sample    count group lane  symbol 
##    <chr>     <chr>     <dbl> <fct> <fct> <chr>  
##  1 497097    10_6_5_11     1 LP    L004  Xkr4   
##  2 497097    9_6_5_11      2 ML    L004  Xkr4   
##  3 497097    purep53     342 Basal L004  Xkr4   
##  4 497097    JMS8-2      526 Basal L006  Xkr4   
##  5 497097    JMS8-3        3 ML    L006  Xkr4   
##  6 497097    JMS8-4        3 LP    L006  Xkr4   
##  7 497097    JMS8-5      535 Basal L006  Xkr4   
##  8 497097    JMS9-P7c      2 ML    L008  Xkr4   
##  9 497097    JMS9-P8c      0 LP    L008  Xkr4   
## 10 100503874 10_6_5_11     0 LP    L004  Gm19938
## # … with 233,126 more rows
…
counts_aggregated = 
  counts %>%
  aggregate_duplicates(aggregation_function = median)

## Warning in aggregate_duplicated_transcripts_bulk(.data, .sample = !!.sample, : tidybulk
## says: for aggregation, factors and logical columns were converted to character

## Converted to characters

## factorfactor

counts_aggregated

## # A tibble: 233,136 x 7
##    entrez    sample    count group lane  symbol  `merged transcripts`
##    <chr>     <chr>     <dbl> <chr> <chr> <chr>                  <dbl>
##  1 497097    10_6_5_11     1 LP    L004  Xkr4                       1
##  2 497097    9_6_5_11      2 ML    L004  Xkr4                       1
##  3 497097    purep53     342 Basal L004  Xkr4                       1
##  4 497097    JMS8-2      526 Basal L006  Xkr4                       1
##  5 497097    JMS8-3        3 ML    L006  Xkr4                       1
##  6 497097    JMS8-4        3 LP    L006  Xkr4                       1
##  7 497097    JMS8-5      535 Basal L006  Xkr4                       1
##  8 497097    JMS9-P7c      2 ML    L008  Xkr4                       1
##  9 497097    JMS9-P8c      0 LP    L008  Xkr4                       1
## 10 100503874 10_6_5_11     0 LP    L004  Gm19938                    1
## # … with 233,126 more rows

Data pre-processing

Identifying genes that are lowly expressed

As before, identifying lowly transcribed genes is necessary for several downstream analyses. We can specify the factor of interest for a more informed filtering. This function uses the edgeR utility filterByExpr.

counts_abundant = 
  counts_aggregated %>%
  identify_abundant(factor_of_interest = group)

counts_abundant

## # A tibble: 233,136 x 8
##    entrez    sample    count group lane  symbol  `merged transcripts` .abundant
##    <chr>     <chr>     <dbl> <chr> <chr> <chr>                  <dbl> <lgl>    
##  1 497097    10_6_5_11     1 LP    L004  Xkr4                       1 TRUE     
##  2 497097    9_6_5_11      2 ML    L004  Xkr4                       1 TRUE     
##  3 497097    purep53     342 Basal L004  Xkr4                       1 TRUE     
##  4 497097    JMS8-2      526 Basal L006  Xkr4                       1 TRUE     
##  5 497097    JMS8-3        3 ML    L006  Xkr4                       1 TRUE     
##  6 497097    JMS8-4        3 LP    L006  Xkr4                       1 TRUE     
##  7 497097    JMS8-5      535 Basal L006  Xkr4                       1 TRUE     
##  8 497097    JMS9-P7c      2 ML    L008  Xkr4                       1 TRUE     
##  9 497097    JMS9-P8c      0 LP    L008  Xkr4                       1 TRUE     
## 10 100503874 10_6_5_11     0 LP    L004  Gm19938                    1 FALSE    
## # … with 233,126 more rows

Scaling data for visualisation

We can compensate for technical differences in sequencing depth, scaling the data (also called normalisation). By default the TMM (Robinson and Oshlack 2010) method is used. The scaling will be calculated on the highly-transcribed genes and applied on all genes.

counts_scaled = 
  counts_abundant %>%
  scale_abundance()

counts_scaled %>% select(sample, symbol, contains("count"), everything())

## # A tibble: 233,136 x 11
##    sample symbol count count_scaled entrez group lane  `merged transcr… .abundant   TMM
##    <chr>  <chr>  <dbl>        <dbl> <chr>  <chr> <chr>            <dbl> <lgl>     <dbl>
##  1 10_6_… Xkr4       1         2.59 497097 LP    L004                 1 TRUE      0.891
##  2 9_6_5… Xkr4       2         4.14 497097 ML    L004                 1 TRUE      1.04 
##  3 purep… Xkr4     342       421.   497097 Basal L004                 1 TRUE      1.08 
##  4 JMS8-2 Xkr4     526       762.   497097 Basal L006                 1 TRUE      1.02 
##  5 JMS8-3 Xkr4       3         2.91 497097 ML    L006                 1 TRUE      1.03 
##  6 JMS8-4 Xkr4       3         4.10 497097 LP    L006                 1 TRUE      0.916
##  7 JMS8-5 Xkr4     535       729.   497097 Basal L006                 1 TRUE      1.01 
##  8 JMS9-… Xkr4       2         6.60 497097 ML    L008                 1 TRUE      1.08 
##  9 JMS9-… Xkr4       0         0    497097 LP    L008                 1 TRUE      0.959
## 10 10_6_… Gm199…     0         0    10050… LP    L004                 1 FALSE     0.891
## # … with 233,126 more rows, and 1 more variable: multiplier <dbl>
…
## =====================================
## tidybulk says: All testing methods use raw counts, irrespective of if scale_abundance 
## or adjust_abundance have been calculated. Therefore, it is essential to add covariates 
## such as batch effects (if applicable) in the formula.
## =====================================

## tidybulk says: The design column names are "groupBasal, groupLP, groupML, laneL006, laneL008"

## tidybulk says: to access the raw results (fitted GLM) do `attr(..., "internals")$voom`

counts_test

## # A tibble: 25,904 x 22
##    symbol entrez `merged transcr… .abundant `logFC___groupB… `logFC___groupB…
##    <chr>  <chr>             <dbl> <lgl>                <dbl>            <dbl>
##  1 Xkr4   497097                1 TRUE                 7.44           6.94   
##  2 Gm199… 10050…                1 FALSE               NA             NA      
##  3 Gm105… 10003…                1 FALSE               NA             NA      
##  4 Rp1    19888                 1 FALSE               NA             NA      
##  5 Sox17  20671                 1 TRUE                 2.93           2.30   
##  6 Mrpl15 27395                 1 TRUE                 0.466          0.00912
##  7 Lypla1 18777                 1 TRUE                 0.275         -0.395  
##  8 Gm198… 10050…                1 FALSE               NA             NA      
##  9 Tcea1  21399                 1 TRUE                 0.354          0.380  
## 10 Rgs20  58175                 1 TRUE                -5.50          -5.05   
## # … with 25,894 more rows, and 16 more variables: `logFC___groupLP - groupML` <dbl>,
## #   `AveExpr___groupBasal-groupLP` <dbl>, `AveExpr___groupBasal - groupML` <dbl>,
## #   `AveExpr___groupLP - groupML` <dbl>, `t___groupBasal-groupLP` <dbl>, `t___groupBasal
## #   - groupML` <dbl>, `t___groupLP - groupML` <dbl>,
## #   `P.Value___groupBasal-groupLP` <dbl>, `P.Value___groupBasal - groupML` <dbl>,
## #   `P.Value___groupLP - groupML` <dbl>, `adj.P.Val___groupBasal-groupLP` <dbl>,
## #   `adj.P.Val___groupBasal - groupML` <dbl>, `adj.P.Val___groupLP - groupML` <dbl>,
## #   `B___groupBasal-groupLP` <dbl>, `B___groupBasal - groupML` <dbl>, `B___groupLP -
## #   groupML` <dbl>
…
