Single-cell Tidy Transcriptomics - analysis of single-cell RNA sequencing data with R tidy principles • zhejiang2020
…
If we need, we can extract transcript information too. A regular tibble will be returned for independent visualisation and analyses.

counts %>%
  join_transcripts("ENSG00000228463")

## tidySingleCellExperiment says: A data frame is returned for independent data analysis.

## # A tibble: 4,290 x 5
##    cell          transcript    abundance_counts Sample             Barcode      
##    <chr>         <chr>                    <dbl> <chr>              <chr>        
##  1 AAACCTGAGAAG… ENSG00000228…                0 raw_gene_bc_matri… AAACCTGAGAAG…
##  2 AAACCTGAGACA… ENSG00000228…                0 raw_gene_bc_matri… AAACCTGAGACA…
##  3 AAACCTGAGATA… ENSG00000228…                0 raw_gene_bc_matri… AAACCTGAGATA…
##  4 AAACCTGAGGCA… ENSG00000228…                0 raw_gene_bc_matri… AAACCTGAGGCA…
##  5 AAACCTGCAAGG… ENSG00000228…                0 raw_gene_bc_matri… AAACCTGCAAGG…
##  6 AAACCTGCAGGA… ENSG00000228…                0 raw_gene_bc_matri… AAACCTGCAGGA…
##  7 AAACCTGCAGGC… ENSG00000228…                0 raw_gene_bc_matri… AAACCTGCAGGC…
##  8 AAACCTGCATGA… ENSG00000228…                0 raw_gene_bc_matri… AAACCTGCATGA…
##  9 AAACCTGGTAAA… ENSG00000228…                0 raw_gene_bc_matri… AAACCTGGTAAA…
## 10 AAACCTGGTACA… ENSG00000228…                0 raw_gene_bc_matri… AAACCTGGTACA…
## # … with 4,280 more rows
…
# Calculate clusters
clusters <- quickCluster(counts_filtered)

# Add scaled counts
counts_scaled <- 
  counts_filtered %>%
  computeSumFactors(cluster=clusters) %>%
  logNormCounts()

counts_scaled %>%
  join_transcripts("CD79B")

## tidySingleCellExperiment says: A data frame is returned for independent data analysis.

## # A tibble: 3,978 x 14
##    cell  transcript abundance_counts abundance_logco… Sample Barcode   sum
##    <chr> <chr>                 <dbl>            <dbl> <chr>  <chr>   <dbl>
##  1 AAAC… CD79B                     0             0    raw_g… AAACCT…  1738
##  2 AAAC… CD79B                     1             1.21 raw_g… AAACCT…  3240
##  3 AAAC… CD79B                     0             0    raw_g… AAACCT…  2983
##  4 AAAC… CD79B                     0             0    raw_g… AAACCT…  4181
##  5 AAAC… CD79B                     0             0    raw_g… AAACCT… 12147
##  6 AAAC… CD79B                     6             2.05 raw_g… AAACCT…  8588
##  7 AAAC… CD79B                     4             2.75 raw_g… AAACCT…  3158
##  8 AAAC… CD79B                     0             0    raw_g… AAACCT…  5081
##  9 AAAC… CD79B                     0             0    raw_g… AAACCT…  3562
## 10 AAAC… CD79B                     0             0    raw_g… AAACCT…  7157
## # … with 3,968 more rows, and 7 more variables: detected <int>,
## #   subsets_Mito_sum <dbl>, subsets_Mito_detected <int>,
## #   subsets_Mito_percent <dbl>, total <dbl>, high_mitochondrion <lgl>,
## #   sizeFactor <dbl>
…
